\relax 
\citation{*}
\bibstyle{angewandte_chemie}
\bibdata{literature}
\bibcite{bk02}{1}
\bibcite{bmv84}{2}
\bibcite{bs93}{3}
\bibcite{clr98bfs}{4}
\bibcite{clr98dfs}{5}
\bibcite{clr98complexity}{6}
\bibcite{dhl90}{7}
\bibcite{dl93}{8}
\bibcite{dw88}{9}
\bibcite{ers00}{10}
\bibcite{fig96}{11}
\bibcite{ghhjs91}{12}
\bibcite{gm78}{13}
\bibcite{gmrw01}{14}
\bibcite{gwb98}{15}
\bibcite{gxsb00}{16}
\bibcite{jwd00}{17}
\bibcite{lhdl94}{18}
\bibcite{lldf01}{19}
\bibcite{mdlMolFormat}{20}
\@writefile{toc}{\contentsline {section}{\tocsection {}{}{References}}{1}}
\bibcite{ml91}{21}
\bibcite{mor65}{22}
\bibcite{mr01}{23}
\bibcite{mr03}{24}
\bibcite{mrww04}{25}
\bibcite{odtl01}{26}
\bibcite{pdbFormat}{27}
\bibcite{povray}{28}
\bibcite{rr99b}{29}
\bibcite{smarts}{30}
\bibcite{smilesFormat}{31}
\bibcite{sybylmol2}{32}
\bibcite{tc00kiershape}{33}
\bibcite{tc00zagrebgroup}{34}
\bibcite{wc99}{35}
\bibcite{wei88}{36}
\bibcite{wil01}{37}
\bibcite{www89}{38}
\bibcite{wy96}{39}
\bibcite{wfz04a}{40}
\bibcite{wfz04b}{41}
\bibcite{wz03}{42}
\bibcite{zup89c}{43}
\newlabel{tocindent-1}{0pt}
\newlabel{tocindent0}{13.9917pt}
\newlabel{tocindent1}{0pt}
\newlabel{tocindent2}{0pt}
\newlabel{tocindent3}{0pt}
