                          
                          
                           
0,algorithm,3,1,37680-73-2,-7.497464148479423,-7.89
1,algorithm,3,2,94-09-7,-1.8789043162085997,-2.32
2,algorithm,3,3,50-78-2,-1.8615873769804017,-1.72
3,algorithm,3,4,58-55-9,-0.9917032180607015,-1.39
4,algorithm,3,5,60-80-0,-1.5783104894841222,-0.56
5,algorithm,3,6,1912-24-9,-3.8739623693454757,-3.85
6,algorithm,3,7,50-06-6,-2.2730429084669255,-2.34
7,algorithm,3,8,330-54-1,-3.0665437344410313,-3.8
8,algorithm,3,9,67-20-9,-3.2031226410203346,-3.47
9,algorithm,3,10,57-41-0,-3.3190790674631403,-3.99
10,algorithm,3,11,439-14-5,-4.606976357332913,-3.76
11,algorithm,3,12,58-22-0,-4.416183042000734,-4.09
12,algorithm,3,13,58-89-9,-4.349081786347851,-4.64
13,algorithm,3,14,56-38-2,-4.478763842215113,-4.66
14,algorithm,3,15,333-41-5,-4.047201063421662,-3.64
15,algorithm,3,16,77-09-8,-4.500305248895518,-2.9
16,algorithm,3,17,121-75-5,-2.2938336091589915,-3.37
17,algorithm,3,18,2921-88-2,-5.999451684243624,-5.49
18,algorithm,3,19,363-24-6,-3.4650963678459465,-2.47
19,algorithm,3,20,50-29-3,-6.821254309538584,-8.08
20,algorithm,3,21,57-74-9,-6.976997304335008,-6.86
                                                    
                                                    
                                                    
                                                    
                                                    
                                                    
                                                    
                                                    
                                                    
                                                    
                                                    
                                                    
                                                    
                                                    
                                                    
                                                    
                                                    
                                                    
                                                    
                                                    
                                                    
                                                    
                                                    
                                                    
                                                    
                                                    
                                                    
                                                    
                                                    
                                                    
                                                    
                                                    
                                                    
                                                    
                                                    
                                                    
                                                    
                                                    
